Place,Name,Sex,BirthDate,Age,Country,Equipment,Division,BodyweightKg,WeightClassKg,Squat1Kg,Squat2Kg,Squat3Kg,Best3SquatKg,Bench1Kg,Bench2Kg,Bench3Kg,Best3BenchKg,Deadlift1Kg,Deadlift2Kg,Deadlift3Kg,Best3DeadliftKg,TotalKg,Event,Team
1,Natalia Dembna,F,2000-08-24,,Poland,Raw,J20-23,54.75,56,95,100,-102.5,100,55,60,-62.5,60,120,130,-140,130,290,SBD,Polish Barbells
2,Klaudia Madeja,F,2000-12-30,,Poland,Raw,J20-23,45.45,56,82.5,85,90,90,40,45,-47.5,45,125,132.5,-137.5,132.5,267.5,SBD,Powerlifting Bears
1,Katarzyna Nahacz,F,2001-01-27,,Poland,Raw,J20-23,59.5,60,105,115,-122.5,115,50,55,57.5,57.5,150,-160,-160,150,322.5,SBD,
2,Marcelina Gorlicka,F,2000-08-29,,Poland,Raw,J20-23,58.3,60,90,-95,95,95,40,-45,-45,40,120,130,-135,130,265,SBD,Powerlifting Bears
3,Natalia Mazur,F,1999-02-02,,Poland,Raw,J20-23,56.55,60,90,95,-100,95,55,57.5,-60,57.5,95,102.5,110,110,262.5,SBD,Polish Barbells
1,Oliwia Sierzchała,F,2001-03-09,,Poland,Raw,J20-23,66.15,67.5,117.5,125,132.5,132.5,62.5,70,75,75,135,142.5,150,150,357.5,SBD,Podsztanga.pl
2,Katarzyna Pawlik,F,2001-12-18,,Poland,Raw,J20-23,67.5,67.5,115,125,130,130,55,-60,60,60,115,125,137.5,137.5,327.5,SBD,
3,Paulina Adamska,F,2001-02-16,,Poland,Raw,J20-23,62.5,67.5,90,-95,95,95,45,47.5,50,50,105,112.5,120,120,265,SBD,
1,Daria Postrożna,F,2000-06-23,,Poland,Raw,J20-23,78.7,90,112.5,120,127.5,127.5,57.5,60,62.5,62.5,-130,137.5,145,145,335,SBD,Husarz Team
1,Idzi Bombek,F,1995-10-16,,Poland,Raw,Open,53.3,56,-120,120,125,125,60,65,67.5,67.5,122.5,127.5,135,135,327.5,SBD,Farma Lifterlw Wojny
2,Dominika Wazna,F,1997-11-20,,Poland,Raw,Open,53.7,56,120,125,-127.5,125,55,60,-62.5,60,-127.5,127.5,132.5,132.5,317.5,SBD,
3,Natalia Soboń,F,1995-08-19,,Poland,Raw,Open,50.3,56,105,110,112.5,112.5,50,52.5,-55,52.5,125,130,137.5,137.5,302.5,SBD,
4,Natalia Dembna,F,2000-08-24,,Poland,Raw,Open,54.75,56,95,100,-102.5,100,55,60,-62.5,60,120,130,-140,130,290,SBD,Polish Barbells
5,Klaudia Madeja,F,2000-12-30,,Poland,Raw,Open,45.45,56,82.5,85,90,90,40,45,-47.5,45,125,132.5,-137.5,132.5,267.5,SBD,Powerlifting Bears
6,Paulina Szołtysik,F,1998-07-19,,Poland,Raw,Open,50.7,56,80,85,-90,85,-45,45,50,50,115,125,130,130,265,SBD,BORN 2BE Strong
7,Justyna Grzeszczyk,F,1986-12-14,,Poland,Raw,Open,54.4,56,80,85,-90,85,45,50,-52.5,50,110,120,130,130,265,SBD,
DQ,Karolina Nowok,F,1996-09-19,,Poland,Raw,Open,52.8,56,105,112.5,-115,112.5,-47.5,-47.5,-47.5,,105,-112.5,-112.5,105,,SBD,
1,Aleksandra Szymczykowska,F,1998-04-17,,Poland,Raw,Open,59.3,60,135,145,150,150,105,110,112.5,112.5,165,175,180,180,442.5,SBD,The Lifters
2,Katarzyna Nahacz,F,2001-01-27,,Poland,Raw,Open,59.5,60,105,115,-122.5,115,50,55,57.5,57.5,150,-160,-160,150,322.5,SBD,
3,Michalina Walkowiak,F,1996-04-23,,Poland,Raw,Open,59.55,60,105,110,115,115,60,65,-67.5,65,120,130,137.5,137.5,317.5,SBD,Polish Barbells
4,Magdalen Gomulkiewicz,F,1997-01-11,,Poland,Raw,Open,59.55,60,110,115,120,120,-60,60,62.5,62.5,120,127.5,-137.5,127.5,310,SBD,Podsztanga.pl
5,Maria Siwakowska,F,1989-09-13,,Poland,Raw,Open,58.9,60,95,100,105,105,55,57.5,-60,57.5,120,127.5,-132.5,127.5,290,SBD,Polish Barbells
6,Sandra Karpicz,F,1998-11-26,,Poland,Raw,Open,60,60,90,95,-100,95,52.5,55,-57.5,55,122.5,130,135,135,285,SBD,Husarz Team
7,Marcelina Gorlicka,F,2000-08-29,,Poland,Raw,Open,58.3,60,90,-95,95,95,40,-45,-45,40,120,130,-135,130,265,SBD,Powerlifting Bears
8,Natalia Mazur,F,1999-02-02,,Poland,Raw,Open,56.55,60,90,95,-100,95,55,57.5,-60,57.5,95,102.5,110,110,262.5,SBD,Polish Barbells
1,Marta Zawadzka,F,1996-09-16,,Poland,Raw,Open,64.65,67.5,-150,150,160,160,95,-97.5,97.5,97.5,145,155,165,165,422.5,SBD,Wredoty Jaroty
2,Dominika Michalska,F,1994-08-08,,Poland,Raw,Open,66.45,67.5,155,162.5,-170,162.5,65,-70,-70,65,160,170,-180,170,397.5,SBD,Studio Sylwetki Kwidzyn
3,Sylwia Pakuła,F,1998-09-26,,Poland,Raw,Open,65.7,67.5,125,132.5,-140,132.5,45,50,55,55,160,170,-180,170,357.5,SBD,Polish Barbells
4,Oliwia Sierzchała,F,2001-03-09,,Poland,Raw,Open,66.15,67.5,117.5,125,132.5,132.5,62.5,70,75,75,135,142.5,150,150,357.5,SBD,Podsztanga.pl
5,Edyta Marciniszyn,F,1996-09-10,,Poland,Raw,Open,66.2,67.5,130,140,-150,140,72.5,-80,-80,72.5,130,140,-150,140,352.5,SBD,The Lifters
6,Anna Strach,F,1992-12-22,,Poland,Raw,Open,67.2,67.5,125,130,-135,130,50,-55,-55,50,150,162.5,-172.5,162.5,342.5,SBD,KS Team Wroclaw
7,Katarzyna Adamczyk,F,1993-09-28,,Poland,Raw,Open,63.2,67.5,112.5,117.5,125,125,-67.5,67.5,-72.5,67.5,135,-142.5,-142.5,135,327.5,SBD,
8,Katarzyna Pawlik,F,2001-12-18,,Poland,Raw,Open,67.5,67.5,115,125,130,130,55,-60,60,60,115,125,137.5,137.5,327.5,SBD,
9,Kamila Banska,F,1998-07-25,,Poland,Raw,Open,66.7,67.5,95,102.5,110,110,50,55,-57.5,55,115,125,135,135,300,SBD,
10,Joanna Bandurowska,F,2004-09-29,,Poland,Raw,Open,66.4,67.5,90,97.5,102.5,102.5,55,-57.5,57.5,57.5,117.5,127.5,137.5,137.5,297.5,SBD,Podsztanga.pl
11,Aleksandra Paziewska,F,2004-02-14,,Poland,Raw,Open,63.7,67.5,110,115,-120,115,55,57.5,-60,57.5,110,115,120,120,292.5,SBD,Husarz Team
12,Ewa Niśkiewicz,F,1982-09-16,,Poland,Raw,Open,66.1,67.5,90,-95,-95,90,57.5,-62.5,-62.5,57.5,120,130,140,140,287.5,SBD,BORN 2BE Strong
13,Aniela Marciniszyn,F,1992-09-20,,Poland,Raw,Open,67.15,67.5,80,85,90,90,45,47.5,-50,47.5,130,140,150,150,287.5,SBD,Polish Barbells
14,Anna Galuba,F,1991-11-28,,Poland,Raw,Open,64.9,67.5,100,107.5,110,110,-50,55,-60,55,105,110,120,120,285,SBD,
15,Paulina Adamska,F,2001-02-16,,Poland,Raw,Open,62.5,67.5,90,-95,95,95,45,47.5,50,50,105,112.5,120,120,265,SBD,
16,Karolina Holecka,F,2004-03-25,,Poland,Raw,Open,60.45,67.5,77.5,82.5,87.5,87.5,42.5,45,-47.5,45,110,115,120,120,252.5,SBD,Podsztanga.pl
17,Klaudia Rymarczyk Krakowska,F,1989-04-06,,Poland,Raw,Open,64.5,67.5,65,70,-75,70,-45,45,-50,45,115,120,-125,120,235,SBD,BORN 2BE Strong
18,Sonia Kasierot,F,1997-02-21,,Poland,Raw,Open,66.4,67.5,-65,-67.5,67.5,67.5,35,37.5,-40,37.5,95,105,-110,105,210,SBD,BORN 2BE Strong
19,Kinga Skura,F,2005-09-15,,Poland,Raw,Open,62.2,67.5,60,67.5,70,70,30,37.5,-40,37.5,75,85,-90,85,192.5,SBD,BORN 2BE Strong
1,Wiktoria Paga,F,1995-03-17,,Poland,Raw,Open,73.6,75,130,140,147.5,147.5,70,80,85,85,120,130,140,140,372.5,SBD,Powerlifting Rzeszow / 3 Podkarpacka Brygada Obrony Terytorialnej
2,Joanna Nastaj-Leszczyńska,F,1987-07-30,,Poland,Raw,Open,69.3,75,120,127.5,-132.5,127.5,67.5,-70,-70,67.5,160,167.5,172.5,172.5,367.5,SBD,Farma Lifterow Wojny
3,Karolina Pempera,F,1988-05-01,,Poland,Raw,Open,72.1,75,90,95,100,100,50,52.5,-55,52.5,-100,102.5,112.5,112.5,265,SBD,Legion
4,Angelika Mroczek,F,1996-09-02,,Poland,Raw,Open,68.85,75,80,85,87.5,87.5,47.5,50,-52.5,50,-100,110,-117.5,110,247.5,SBD,BORN 2BE Strong
1,Oktawia Lurka,F,1990-02-22,,Poland,Raw,Open,90,90,162.5,170,180,180,117.5,122.5,127.5,127.5,202.5,212.5,220,220,527.5,SBD,Mendelejew Team
2,Agnieszka Dzikoń,F,1993-10-16,,Poland,Raw,Open,79.3,90,140,155,170,170,62.5,67.5,-70,67.5,180,190,-200,190,427.5,SBD,
3,Malgorzata Bartkowiak,F,1979-01-11,,Poland,Raw,Open,88.05,90,-135,137.5,145,145,65,-67.5,-70,65,150,160,-165,160,370,SBD,CrossFit Old Mine
4,Marcelina Łukasiewicz,F,1997-07-24,,Poland,Raw,Open,87.9,90,125,132.5,-140,132.5,55,57.5,-60,57.5,155,-165,-175,155,345,SBD,Polish Barbells
5,Daria Postrożna,F,2000-06-23,,Poland,Raw,Open,78.7,90,112.5,120,127.5,127.5,57.5,60,62.5,62.5,-130,137.5,145,145,335,SBD,Husarz Team
6,Julia Sulich,F,2005-06-11,,Poland,Raw,Open,81.55,90,90,97.5,102.5,102.5,-57.5,57.5,-62.5,57.5,90,100,-105,100,260,SBD,KS Team Wroclaw
1,Joanna Bandurowska,F,2004-09-29,,Poland,Raw,S17-19,66.4,67.5,90,97.5,102.5,102.5,55,-57.5,57.5,57.5,117.5,127.5,137.5,137.5,297.5,SBD,Podsztanga.pl
2,Aleksandra Paziewska,F,2004-02-14,,Poland,Raw,S17-19,63.7,67.5,110,115,-120,115,55,57.5,-60,57.5,110,115,120,120,292.5,SBD,Husarz Team
3,Karolina Holecka,F,2004-03-25,,Poland,Raw,S17-19,60.45,67.5,77.5,82.5,87.5,87.5,42.5,45,-47.5,45,110,115,120,120,252.5,SBD,Podsztanga.pl
4,Kinga Skura,F,2005-09-15,,Poland,Raw,S17-19,62.2,67.5,60,67.5,70,70,30,37.5,-40,37.5,75,85,-90,85,192.5,SBD,BORN 2BE Strong
1,Julia Sulich,F,2005-06-11,,Poland,Raw,S17-19,81.55,90,90,97.5,102.5,102.5,-57.5,57.5,-62.5,57.5,90,100,-105,100,260,SBD,KS Team Wroclaw
1,Łukasz Jabloński,M,2000-06-25,,Poland,Raw,J20-23,66.4,75,175,185,195,195,115,120,-122.5,120,220,230,235,235,550,SBD,KS Team Wroclaw
2,Leszek Kuc,M,2000-08-18,,Poland,Raw,J20-23,72.9,75,185,195,202.5,202.5,117.5,122.5,127.5,127.5,195,205,-212.5,205,535,SBD,
3,Dominik Hezner,M,2000-03-14,,Poland,Raw,J20-23,73.3,75,180,-190,190,190,115,-120,-120,115,200,210,-220,210,515,SBD,
4,Cezary Piskorz,M,2003-06-19,,Poland,Raw,J20-23,71.75,75,155,165,-172.5,165,102.5,107.5,-112.5,107.5,175,182.5,190,190,462.5,SBD,
5,Tomasz Łogisz,M,1998-12-22,,Poland,Raw,J20-23,67.25,75,150,-160,160,160,90,97.5,-102.5,97.5,180,190,,190,447.5,SBD,Podsztanga.pl
6,Jakub Waligórski,M,2001-02-06,,Poland,Raw,J20-23,68.8,75,130,137.5,142.5,142.5,102.5,107.5,-112.5,107.5,175,185,-200,185,435,SBD,Powerlifting Bears
7,Mikołaj Szafraniec,M,2002-02-07,,Poland,Raw,J20-23,72.85,75,125,135,142.5,142.5,65,70,72.5,72.5,180,195,-200,195,410,SBD,
1,Dominik Koniuszy,M,1998-12-17,,Poland,Raw,J20-23,78.8,82.5,197.5,202.5,207.5,207.5,127.5,135,140,140,227.5,-235,-235,227.5,575,SBD,
2,Krystian Błauciak,M,1999-07-07,,Poland,Raw,J20-23,81.35,82.5,-200,200,-212.5,200,130,135,,135,240,-250,-250,240,575,SBD,
3,Jakub Kowalski,M,1999-09-13,,Poland,Raw,J20-23,80.55,82.5,185,192.5,-200,192.5,155,-160,160,160,210,220,-230,220,572.5,SBD,
4,Szymon Wiatrowski,M,1999-01-18,,Poland,Raw,J20-23,82.5,82.5,200,-205,205,205,125,127.5,-130,127.5,220,235,-242.5,235,567.5,SBD,Wola Mocy
5,Kamil Kropidłowski,M,2000-09-28,,Poland,Raw,J20-23,78.45,82.5,180,190,-200,190,115,120,125,125,230,240,250,250,565,SBD,Husarz Team
6,Jakub Makosz,M,2002-12-02,,Poland,Raw,J20-23,78.55,82.5,-170,170,-180,170,120,130,132.5,132.5,220,240,-250,240,542.5,SBD,Mendelejew Team
7,Arkadiusz Borek,M,2001-04-04,,Poland,Raw,J20-23,80.1,82.5,190,200,205,205,105,110,-115,110,210,225,-245,225,540,SBD,
8,Kacper Zwierz,M,1999-12-20,,Poland,Raw,J20-23,80.5,82.5,180,190,-195,190,125,-132.5,132.5,132.5,195,205,-212.5,205,527.5,SBD,Podsztanga.pl
9,Bartosz Laskowski,M,1999-11-20,,Poland,Raw,J20-23,80.35,82.5,170,177.5,187.5,187.5,102.5,110,-117.5,110,190,202.5,215,215,512.5,SBD,Tribe Barbell
10,Bartlomiej Zych,M,2002-05-24,,Poland,Raw,J20-23,81.5,82.5,165,175,185,185,-105,-105,105,105,200,-220,-220,200,490,SBD,
11,Dominik Łakoma,M,1998-05-26,,Poland,Raw,J20-23,77.4,82.5,170,-177.5,-180,170,112.5,-117.5,-117.5,112.5,190,-202.5,202.5,202.5,485,SBD,The Lifters
12,Jacek Jozefiak,M,2002-08-06,,Poland,Raw,J20-23,77.5,82.5,-130,130,-140,130,90,-100,-110,90,170,190,200,200,420,SBD,
DQ,Mateusz Skierski,M,2000-10-21,,Poland,Raw,J20-23,81.5,82.5,200,210,215,215,-127.5,-132.5,-132.5,,230,240,252.5,252.5,,SBD,
1,Kamil Gigon,M,1999-05-15,,Poland,Raw,J20-23,87.7,90,215,225,230,230,140,150,155,155,230,-250,250,250,635,SBD,
2,Maciej Preinl,M,2001-01-05,,Poland,Raw,J20-23,85.95,90,197.5,210,215,215,135,140,-145,140,240,252.5,-265,252.5,607.5,SBD,
3,Maciej Siwinski,M,1999-12-07,,Poland,Raw,J20-23,88.4,90,202.5,210,-217.5,210,130,-137.5,137.5,137.5,225,240,-252.5,240,587.5,SBD,Siwy Team
4,Dominik Zapala,M,2000-10-07,,Poland,Raw,J20-23,89.15,90,217.5,230,240,240,115,-122.5,-122.5,115,205,215,-225,215,570,SBD,Podsztanga.pl
5,Damian Kolodynski,M,1999-09-22,,Poland,Raw,J20-23,88.6,90,190,200,-210,200,130,135,140,140,220,-240,-240,220,560,SBD,Powerlifting Bears
6,Dawid Ożga,M,1999-09-02,,Poland,Raw,J20-23,87.95,90,180,192.5,-202.5,192.5,122.5,130,135,135,200,212.5,225,225,552.5,SBD,The Lifters
7,Jakub Wegenek,M,1999-07-07,,Poland,Raw,J20-23,86.2,90,175,182.5,-187.5,182.5,120,-125,-125,120,220,227.5,-232.5,227.5,530,SBD,Husarz Team
8,Szymon Grzybacz,M,2001-06-05,,Poland,Raw,J20-23,89.3,90,172.5,-182.5,190,190,90,,,90,200,-212.5,-215,200,480,SBD,Solvay Barbell
1,Eryk Łakomy,M,1998-12-26,,Poland,Raw,J20-23,98.6,100,-255,255,270,270,170,182.5,190,190,300,-317.5,-317.5,300,760,SBD,Farma Lifterow Wojny
2,Mateusz Olszówka,M,1999-06-11,,Poland,Raw,J20-23,99.5,100,245,260,270,270,145,155,165,165,270,287.5,300,300,735,SBD,Podsztanga.pl
3,Bartosz Szczepankiewicz,M,1999-05-19,,Poland,Raw,J20-23,99.9,100,245,257.5,270,270,175,-185,,175,285,-305,-305,285,730,SBD,
4,Albert Mielczarek,M,1998-09-17,,Poland,Raw,J20-23,97,100,240,260,-275,260,137.5,145,-150,145,255,265,-275,265,670,SBD,Powerlifting Bears
5,Kacper Wawrzyniak,M,2001-09-21,,Poland,Raw,J20-23,92.6,100,225,235,245,245,125,132.5,137.5,137.5,260,-285,-290,260,642.5,SBD,Wola Mocy
6,Dominik Stanik,M,2000-04-01,,Poland,Raw,J20-23,97.4,100,200,-210,210,210,140,150,-155,150,-250,250,260,260,620,SBD,
7,Dawid Holeksa,M,2002-03-17,,Poland,Raw,J20-23,96.75,100,200,210,-215,210,130,135,-140,135,235,250,-265,250,595,SBD,Wagon Strenght
8,Slawomir Perlak,M,1999-10-26,,Poland,Raw,J20-23,96.5,100,195,210,-220,210,110,120,125,125,215,230,-240,230,565,SBD,
1,Damian Chudy,M,1999-02-26,,Poland,Raw,J20-23,108,110,265,275,285,285,185,195,-200,195,280,300,-310,300,780,SBD,Metro-Flex Wroclaw
2,Dawid Dereń,M,1998-12-25,,Poland,Raw,J20-23,109.5,110,245,255,270,270,135,-142.5,-150,135,270,285,300,300,705,SBD,Podsztanga.pl
3,Dawid Szajek,M,2001-05-24,,Poland,Raw,J20-23,105.2,110,225,237.5,250,250,175,185,-187.5,185,245,255,265,265,700,SBD,Lujpower Team
4,Adrian Sitarski,M,1999-08-30,,Poland,Raw,J20-23,104.3,110,230,237.5,245,245,140,145,-150,145,280,290,-295,290,680,SBD,KS Team Wroclaw
5,Kamil Wyrwich,M,2000-11-21,,Poland,Raw,J20-23,108.8,110,220,235,-245,235,140,147.5,155,155,260,280,-285,280,670,SBD,
6,Paweł Regiewicz,M,2001-06-27,,Poland,Raw,J20-23,106.7,110,180,190,-195,190,100,105,-110,105,220,-227.5,227.5,227.5,522.5,SBD,
DQ,Piotr Jurewicz,M,1999-05-28,,Poland,Raw,J20-23,104.1,110,-175,-175,-175,,162.5,-167.5,,162.5,210,-220,220,220,,SBD,Polish Barbells
DQ,Hubert Woźniak,M,1998-09-26,,Poland,Raw,J20-23,107.7,110,260,275,,275,142.5,150,152.5,152.5,-260,-260,-260,,,SBD,Schabownia
1,Sebastian Groblewicz,M,1998-07-23,,Poland,Raw,J20-23,114.3,125,205,215,225,225,-150,150,155,155,255,270,-280,270,650,SBD,
1,Jakub Dzik,M,1999-06-20,,Poland,Raw,J20-23,130.9,125+,260,275,,275,-150,-150,150,150,260,280,-300,280,705,SBD,Powerlifting Bears
1,Marek Witkowski,M,1977-04-16,,Poland,Raw,M40+,79.05,82.5,110,115,-120,115,70,75,80,80,150,-155,-155,150,345,SBD,Powerlifting Zielona Gora
1,Marcin Bała #2,M,1979-07-10,,Poland,Raw,M40+,84.05,90,155,162.5,170,170,115,120,125,125,190,200,210,210,505,SBD,
1,Mariusz Mroczek,M,1975-01-20,,Poland,Raw,M40+,97.3,100,180,195,200,200,120,125,130,130,-215,215,-225,215,545,SBD,Wredoty Jaroty
2,Artur Ciecko,M,1976-12-01,,Poland,Raw,M40+,92.1,100,-115,115,122.5,122.5,125,-130,130,130,145,150,155,155,407.5,SBD,ZATKAlO KAKAlO
1,Pawel Szewczyk,M,1982-01-01,,Poland,Raw,M40+,108.5,110,200,210,220,220,110,120,-125,120,240,250,260,260,600,SBD,
1,Sławomir Jankowski,M,1980-06-18,,Poland,Raw,M40+,161.8,125+,240,255,265,265,175,-190,,175,280,300,310,310,750,SBD,Polish Barbells
1,Daniel Pytel,M,1996-10-19,,Poland,Raw,M40-44,87.05,90,170,180,190,190,115,122.5,-127.5,122.5,200,212.5,-217.5,212.5,525,SBD,Schabownia
1,Paweł Mazij,M,1994-08-10,,Poland,Raw,Open,74.3,75,200,210,220,220,140,152.5,160,160,260,275,285,285,665,SBD,
2,Kamil Poręba,M,1991-03-09,,Poland,Raw,Open,74.3,75,197.5,205,210,210,140,145,-147.5,145,220,230,-235,230,585,SBD,Podsztanga.pl
3,Adam Chudaś,M,1996-08-19,,Poland,Raw,Open,73.15,75,195,205,-215,205,110,115,-120,115,245,260,-265,260,580,SBD,Polish Barbells
4,Łukasz Jabloński,M,2000-06-25,,Poland,Raw,Open,66.4,75,175,185,195,195,115,120,-122.5,120,220,230,235,235,550,SBD,KS Team Wroclaw
5,Leszek Kuc,M,2000-08-18,,Poland,Raw,Open,72.9,75,185,195,202.5,202.5,117.5,122.5,127.5,127.5,195,205,-212.5,205,535,SBD,
6,Sebastian Komorek,M,1997-10-06,,Poland,Raw,Open,74.5,75,180,190,-200,190,100,107.5,-112.5,107.5,220,-235,-235,220,517.5,SBD,
7,Dominik Hezner,M,2000-03-14,,Poland,Raw,Open,73.3,75,180,-190,190,190,115,-120,-120,115,200,210,-220,210,515,SBD,
8,Maksymilian Frydrychowicz,M,2005-01-10,,Poland,Raw,Open,73.45,75,-160,160,170,170,95,105,-107.5,105,170,185,200,200,475,SBD,
9,Cezary Piskorz,M,2003-06-19,,Poland,Raw,Open,71.75,75,155,165,-172.5,165,102.5,107.5,-112.5,107.5,175,182.5,190,190,462.5,SBD,
10,Tomasz Łogisz,M,1998-12-22,,Poland,Raw,Open,67.25,75,150,-160,160,160,90,97.5,-102.5,97.5,180,190,,190,447.5,SBD,Podsztanga.pl
11,Jakub Waligórski,M,2001-02-06,,Poland,Raw,Open,68.8,75,130,137.5,142.5,142.5,102.5,107.5,-112.5,107.5,175,185,-200,185,435,SBD,Powerlifting Bears
12,Hubert Alicki,M,2004-06-16,,Poland,Raw,Open,65.8,75,140,-150,-155,140,105,-110,110,110,170,180,-190,180,430,SBD,The Lifters
13,Michal Ziemnicki,M,1996-09-07,,Poland,Raw,Open,72.65,75,140,150,-160,150,80,90,-92.5,90,170,180,-190,180,420,SBD,Powerlifting Zielona Gora
14,Krzysztof Gancarz,M,1993-01-01,,Poland,Raw,Open,65.65,75,120,127.5,132.5,132.5,97.5,100,-102.5,100,165,172.5,180,180,412.5,SBD,The Lifters
15,Mikołaj Szafraniec,M,2002-02-07,,Poland,Raw,Open,72.85,75,125,135,142.5,142.5,65,70,72.5,72.5,180,195,-200,195,410,SBD,
16,Robert Glanc,M,1992-04-06,,Poland,Raw,Open,72,75,145,147.5,-150,147.5,80,-87.5,-87.5,80,160,170,175,175,402.5,SBD,BORN 2BE Strong
17,Michal Konarski,M,1985-08-05,,Poland,Raw,Open,73.2,75,132.5,137.5,-142.5,137.5,-92.5,97.5,-102.5,97.5,162.5,-167.5,167.5,167.5,402.5,SBD,
DQ,Kostiantyn Kurtov,M,1994-02-10,,Poland,Raw,Open,59.55,75,-130,130,-137.5,130,-90,-90,-90,,150,160,-170,160,,SBD,
1,Filip Dec,M,1993-11-25,,Poland,Raw,Open,81.85,82.5,200,215,225,225,160,167.5,-172.5,167.5,230,245,260,260,652.5,SBD,Mendelejew Team
2,Wojciech Barszczewski,M,1991-04-23,,Poland,Raw,Open,81.85,82.5,220,225,-227.5,225,145,-150,-150,145,250,267.5,-285,267.5,637.5,SBD,Powerlifting Bears
3,Damian Rusek,M,2004-06-16,,Poland,Raw,Open,79.55,82.5,200,207.5,-212.5,207.5,115,-120,-120,115,270,285,-302.5,285,607.5,SBD,Farma Lifterow Wojny
4,Marek Klose,M,1992-10-13,,Poland,Raw,Open,79.7,82.5,180,-190,190,190,165,-170,-170,165,-230,230,-245,230,585,SBD,
5,Wiktor Ciachera,M,1996-10-24,,Poland,Raw,Open,81.65,82.5,210,217.5,225,225,-120,120,-125,120,225,235,-242.5,235,580,SBD,Akademia Wojsk Ladowych im. Gen. Tadeusza Kolï¿½ciuszki
6,Krzysztof Kraśniewski,M,1993-05-20,,Poland,Raw,Open,80.95,82.5,190,202.5,210,210,132.5,140,-145,140,215,227.5,-235,227.5,577.5,SBD,
7,Dominik Koniuszy,M,1998-12-17,,Poland,Raw,Open,78.8,82.5,197.5,202.5,207.5,207.5,127.5,135,140,140,227.5,-235,-235,227.5,575,SBD,
8,Krystian Błauciak,M,1999-07-07,,Poland,Raw,Open,81.35,82.5,-200,200,-212.5,200,130,135,,135,240,-250,-250,240,575,SBD,
9,Jakub Kowalski,M,1999-09-13,,Poland,Raw,Open,80.55,82.5,185,192.5,-200,192.5,155,-160,160,160,210,220,-230,220,572.5,SBD,
10,Szymon Wiatrowski,M,1999-01-18,,Poland,Raw,Open,82.5,82.5,200,-205,205,205,125,127.5,-130,127.5,220,235,-242.5,235,567.5,SBD,Wola Mocy
11,Kamil Kropidłowski,M,2000-09-28,,Poland,Raw,Open,78.45,82.5,180,190,-200,190,115,120,125,125,230,240,250,250,565,SBD,Husarz Team
12,Mateusz Browarski,M,2003-08-28,,Poland,Raw,Open,81.6,82.5,190,200,-207.5,200,110,115,-120,115,235,250,-260,250,565,SBD,
13,Borys Gardecki,M,1987-07-13,,Poland,Raw,Open,80.7,82.5,180,195,-200,195,150,160,165,165,-185,200,-210,200,560,SBD,
14,Szymon Zapert,M,2004-08-18,,Poland,Raw,Open,79.45,82.5,180,195,-202.5,195,115,122.5,-127.5,122.5,205,220,232.5,232.5,550,SBD,
15,Łukasz Ślusarczyk,M,1994-06-25,,Poland,Raw,Open,80.3,82.5,195,-202.5,-202.5,195,115,120,-125,120,220,235,-242.5,235,550,SBD,Ekipa z Miami
16,Jakub Makosz,M,2002-12-02,,Poland,Raw,Open,78.55,82.5,-170,170,-180,170,120,130,132.5,132.5,220,240,-250,240,542.5,SBD,Mendelejew Team
17,Arkadiusz Borek,M,2001-04-04,,Poland,Raw,Open,80.1,82.5,190,200,205,205,105,110,-115,110,210,225,-245,225,540,SBD,
18,Nikodem Kuczborski,M,2003-09-18,,Poland,Raw,Open,78.85,82.5,185,195,-200,195,127.5,-135,-135,127.5,200,210,-215,210,532.5,SBD,
19,Kacper Zwierz,M,1999-12-20,,Poland,Raw,Open,80.5,82.5,180,190,-195,190,125,-132.5,132.5,132.5,195,205,-212.5,205,527.5,SBD,Podsztanga.pl
20,Szymon Laskowski,M,2002-08-05,,Poland,Raw,Open,80.3,82.5,185,192.5,200,200,105,112.5,-117.5,112.5,200,212.5,-220,212.5,525,SBD,Goodlift Gym & Therapy
21,Bartosz Laskowski,M,1999-11-20,,Poland,Raw,Open,80.35,82.5,170,177.5,187.5,187.5,102.5,110,-117.5,110,190,202.5,215,215,512.5,SBD,Tribe Barbell
22,Szymon Brzozowski,M,1995-06-23,,Poland,Raw,Open,81.8,82.5,170,180,-187.5,180,105,-112.5,-112.5,105,205,215,225,225,510,SBD,Goodlift Gym & Therapy
23,Artur Grudkowski,M,1990-06-22,,Poland,Raw,Open,80.15,82.5,170,-182.5,-182.5,170,115,-122.5,-122.5,115,210,220,-232.5,220,505,SBD,
24,Bartlomiej Zych,M,2002-05-24,,Poland,Raw,Open,81.5,82.5,165,175,185,185,-105,-105,105,105,200,-220,-220,200,490,SBD,
25,Maciej Markowski,M,1991-11-02,,Poland,Raw,Open,81.5,82.5,165,175,-182.5,175,95,100,-102.5,100,195,205,215,215,490,SBD,
26,Dominik Łakoma,M,1998-05-26,,Poland,Raw,Open,77.4,82.5,170,-177.5,-180,170,112.5,-117.5,-117.5,112.5,190,-202.5,202.5,202.5,485,SBD,The Lifters
27,Kuba Ciuk,M,1993-12-04,,Poland,Raw,Open,81.05,82.5,140,150,160,160,102.5,107.5,-115,107.5,195,205,215,215,482.5,SBD,
28,Marcel Marcinek,M,2004-09-27,,Poland,Raw,Open,78.6,82.5,150,160,170,170,90,100,-105,100,200,-210,210,210,480,SBD,
29,Rafał Nowicki,M,1986-04-04,,Poland,Raw,Open,79.8,82.5,-145,145,147.5,147.5,100,-107.5,107.5,107.5,170,175,185,185,440,SBD,BORN 2BE Strong
30,Konrad Tarka,M,2002-06-22,,Poland,Raw,Open,77.15,82.5,140,147.5,152.5,152.5,85,90,95,95,167.5,177.5,185,185,432.5,SBD,Husarz Team
31,Kacper Skawinski,M,2004-09-03,,Poland,Raw,Open,77.8,82.5,145,-155,-155,145,112.5,120,122.5,122.5,150,157.5,165,165,432.5,SBD,
32,Jacek Jozefiak,M,2002-08-06,,Poland,Raw,Open,77.5,82.5,-130,130,-140,130,90,-100,-110,90,170,190,200,200,420,SBD,
33,Kamil Maćkowiak,M,1993-08-13,,Poland,Raw,Open,79.6,82.5,130,137.5,142.5,142.5,100,110,115,115,160,-170,-170,160,417.5,SBD,
34,Marek Witkowski,M,1977-04-16,,Poland,Raw,Open,79.05,82.5,110,115,-120,115,70,75,80,80,150,-155,-155,150,345,SBD,Powerlifting Zielona Gora
DQ,Mateusz Skierski,M,2000-10-21,,Poland,Raw,Open,81.5,82.5,200,210,215,215,-127.5,-132.5,-132.5,,230,240,252.5,252.5,,SBD,
1,Marcin Kosut,M,1988-10-23,,Poland,Raw,Open,88.8,90,240,250,-260,250,165,-172.5,,165,260,-280,280,280,695,SBD,Hulk Gym Sarbia
2,Arkadiusz Bereda,M,1995-01-01,,Poland,Raw,Open,89.9,90,240,-250,-250,240,165,-172.5,172.5,172.5,270,-285,-285,270,682.5,SBD,The Lifters
3,Dawid Raczek,M,1991-10-07,,Poland,Raw,Open,88.3,90,210,222.5,230,230,137.5,145,150,150,260,-275,275,275,655,SBD,Powerlifting Bears
4,Kamil Gigon,M,1999-05-15,,Poland,Raw,Open,87.7,90,215,225,230,230,140,150,155,155,230,-250,250,250,635,SBD,
5,Piotr Wnęk,M,1994-05-11,,Poland,Raw,Open,89,90,205,-217.5,220,220,150,155,-160,155,250,257.5,-267.5,257.5,632.5,SBD,
6,Mateusz Filipski,M,1993-07-09,,Poland,Raw,Open,88.3,90,200,210,-217.5,210,125,-130,-130,125,265,280,-290,280,615,SBD,The Lifters
7,Maciej Dobosz,M,1995-02-02,,Poland,Raw,Open,88.95,90,210,220,227.5,227.5,127.5,-132.5,-132.5,127.5,240,250,260,260,615,SBD,
8,Maciej Preinl,M,2001-01-05,,Poland,Raw,Open,85.95,90,197.5,210,215,215,135,140,-145,140,240,252.5,-265,252.5,607.5,SBD,
9,Daniel Zatorski,M,1992-04-04,,Poland,Raw,Open,88.05,90,200,-212.5,225,225,140,-152.5,-152.5,140,-230,235,240,240,605,SBD,
10,Maciej Siwinski,M,1999-12-07,,Poland,Raw,Open,88.4,90,202.5,210,-217.5,210,130,-137.5,137.5,137.5,225,240,-252.5,240,587.5,SBD,Siwy Team
11,Mateusz Krajewski,M,1997-11-25,,Poland,Raw,Open,86.85,90,190,200,210,210,130,135,-140,135,200,215,230,230,575,SBD,Studio Sylwetki Kwidzyn
12,Przemysław Kawczyński,M,1994-03-27,,Poland,Raw,Open,87.4,90,182.5,195,-205,195,115,120,125,125,230,255,-272.5,255,575,SBD,Mendelejew Team
13,Andrzej Detmer,M,1996-10-02,,Poland,Raw,Open,87.45,90,190,200,-210,200,115,120,125,125,210,235,250,250,575,SBD,Studio Sylwetki Kwidzyn
14,Bartlomiej Nojko,M,1987-07-21,,Poland,Raw,Open,87.75,90,185,195,205,205,130,135,140,140,210,225,-235,225,570,SBD,Studio Sylwetki Kwidzyn
15,Dominik Zapala,M,2000-10-07,,Poland,Raw,Open,89.15,90,217.5,230,240,240,115,-122.5,-122.5,115,205,215,-225,215,570,SBD,Podsztanga.pl
16,Michał Gajlewicz,M,1992-02-04,,Poland,Raw,Open,88.75,90,180,-190,190,190,120,125,-130,125,237.5,252.5,-260,252.5,567.5,SBD,Polish Barbells
17,Michal Jucha,M,1993-10-17,,Poland,Raw,Open,88.95,90,185,195,-200,195,120,130,-132.5,130,230,240,-245,240,565,SBD,Powerlifting Zielona Gora
18,Damian Kolodynski,M,1999-09-22,,Poland,Raw,Open,88.6,90,190,200,-210,200,130,135,140,140,220,-240,-240,220,560,SBD,Powerlifting Bears
19,Patryk Paluszkiewicz,M,1993-08-08,,Poland,Raw,Open,87.6,90,180,200,-220,200,135,145,-152.5,145,210,-230,-230,210,555,SBD,
20,Dawid Ożga,M,1999-09-02,,Poland,Raw,Open,87.95,90,180,192.5,-202.5,192.5,122.5,130,135,135,200,212.5,225,225,552.5,SBD,The Lifters
21,Jakub Wegenek,M,1999-07-07,,Poland,Raw,Open,86.2,90,175,182.5,-187.5,182.5,120,-125,-125,120,220,227.5,-232.5,227.5,530,SBD,Husarz Team
22,Konrad Kabata,M,1998-03-22,,Poland,Raw,Open,88.4,90,185,195,-202.5,195,122.5,130,135,135,180,195,200,200,530,SBD,Tribe Barbell
23,Daniel Pytel,M,1996-10-19,,Poland,Raw,Open,87.05,90,170,180,190,190,115,122.5,-127.5,122.5,200,212.5,-217.5,212.5,525,SBD,Schabownia
24,Filip Kawka,M,1997-01-01,,Poland,Raw,Open,89.1,90,160,-170,175,175,125,135,-145,135,190,205,-220,205,515,SBD,
25,Paweł Kamiński,M,1996-09-13,,Poland,Raw,Open,89.9,90,185,192.5,200,200,100,-105,-105,100,190,200,210,210,510,SBD,Podsztanga.pl
26,Marcin Bała #2,M,1979-07-10,,Poland,Raw,Open,84.05,90,155,162.5,170,170,115,120,125,125,190,200,210,210,505,SBD,
27,Szymon Grzybacz,M,2001-06-05,,Poland,Raw,Open,89.3,90,172.5,-182.5,190,190,90,,,90,200,-212.5,-215,200,480,SBD,Solvay Barbell
28,Maciej Paczkowski,M,1997-11-01,,Poland,Raw,Open,87.25,90,145,-155,155,155,95,102.5,-107.5,102.5,170,180,187.5,187.5,445,SBD,
DQ,Marcin Oleś,M,1997-10-30,,Poland,Raw,Open,87,90,-210,-215,-215,,155,160,-165,160,225,237.5,-250,237.5,,SBD,Polish Barbells
DQ,Pawel Golab,M,1992-03-10,,Poland,Raw,Open,88,90,195,205,-207.5,205,-125,-125,-125,,215,225,-235,225,,SBD,
1,Marcin Nowaczek,M,1994-05-06,,Poland,Raw,Open,94.95,100,260,-272.5,275,275,-205,205,-212.5,205,295,312.5,-320,312.5,792.5,SBD,The Lifters
2,Piotr Woźniak,M,1988-05-06,,Poland,Raw,Open,96.9,100,265,275,285,285,180,190,195,195,280,295,-315,295,775,SBD,The Lifters
3,Eryk Łakomy,M,1998-12-26,,Poland,Raw,Open,98.6,100,-255,255,270,270,170,182.5,190,190,300,-317.5,-317.5,300,760,SBD,Farma Lifterow Wojny
4,Mateusz Olszówka,M,1999-06-11,,Poland,Raw,Open,99.5,100,245,260,270,270,145,155,165,165,270,287.5,300,300,735,SBD,Podsztanga.pl
5,Bartosz Szczepankiewicz,M,1999-05-19,,Poland,Raw,Open,99.9,100,245,257.5,270,270,175,-185,,175,285,-305,-305,285,730,SBD,
6,Tomasz Stawiarski,M,1998-03-16,,Poland,Raw,Open,97.9,100,240,250,-255,250,175,-185,-185,175,-280,280,300,300,725,SBD,
7,Paweł Gąsiorek,M,1996-11-11,,Poland,Raw,Open,99.25,100,225,235,-245,235,185,-192.5,192.5,192.5,275,290,-300,290,717.5,SBD,Solvay Barbell
8,Kacper Sarnowski,M,2003-08-31,,Poland,Raw,Open,95.4,100,210,220,240,240,150,160,-165,160,275,295,-300,295,695,SBD,
9,Albert Mielczarek,M,1998-09-17,,Poland,Raw,Open,97,100,240,260,-275,260,137.5,145,-150,145,255,265,-275,265,670,SBD,Powerlifting Bears
10,Arnold Cytrowski,M,1992-08-09,,Poland,Raw,Open,99.2,100,205,215,225,225,165,172.5,177.5,177.5,250,265,-272.5,265,667.5,SBD,Polish Barbells
11,Wojciech Bimczok,M,1998-06-01,,Poland,Raw,Open,97.25,100,230,240,-250,240,165,-175,-175,165,250,260,-270,260,665,SBD,
12,Kacper Wawrzyniak,M,2001-09-21,,Poland,Raw,Open,92.6,100,225,235,245,245,125,132.5,137.5,137.5,260,-285,-290,260,642.5,SBD,Wola Mocy
13,Michal Lech,M,1991-01-01,,Poland,Raw,Open,99.65,100,200,215,-225,215,130,135,-140,135,250,265,280,280,630,SBD,Studio Sylwetki Kwidzyn
14,Dominik Stanik,M,2000-04-01,,Poland,Raw,Open,97.4,100,200,-210,210,210,140,150,-155,150,-250,250,260,260,620,SBD,
15,Lukasz Kurosad,M,1989-08-25,,Poland,Raw,Open,98.1,100,210,220,230,230,135,140,-145,140,240,250,-260,250,620,SBD,
16,Konrad Szczerbiński,M,1995-01-15,,Poland,Raw,Open,98.45,100,190,200,210,210,145,-150,150,150,235,245,255,255,615,SBD,Husarz Team
17,Marcos Bourgeois Mateo,M,1991-08-17,,Poland,Raw,Open,97.25,100,200,210,220,220,137.5,142.5,-147.5,142.5,225,237.5,250,250,612.5,SBD,PB Studio
18,Bartosz Kostuj,M,1993-08-28,,Poland,Raw,Open,98.15,100,210,230,-235,230,120,-132.5,-132.5,120,240,257.5,262.5,262.5,612.5,SBD,
19,Michał Wasilewski,M,1996-12-19,,Poland,Raw,Open,93.5,100,210,220,230,230,112.5,120,125,125,230,242.5,250,250,605,SBD,Farma Lifterow Wojny
20,Milosz Wnuk,M,1996-10-16,,Poland,Raw,Open,98.15,100,195,-205,210,210,150,-155,-155,150,220,230,240,240,600,SBD,The Lifters
21,Dawid Holeksa,M,2002-03-17,,Poland,Raw,Open,96.75,100,200,210,-215,210,130,135,-140,135,235,250,-265,250,595,SBD,Wagon Strenght
22,Michal Fryga,M,1992-06-09,,Poland,Raw,Open,97.35,100,190,200,-205,200,120,125,130,130,210,225,250,250,580,SBD,Polish Barbells
23,Mateusz Surowiec,M,2002-06-30,,Poland,Raw,Open,94.75,100,185,200,-210,200,125,132.5,-137.5,132.5,240,-257.5,-257.5,240,572.5,SBD,TAURUS TEAM
24,Mikolaj Zukow,M,1989-04-28,,Poland,Raw,Open,99.35,100,200,212.5,-225,212.5,120,-125,-125,120,220,230,240,240,572.5,SBD,Wredoty Jaroty
25,Slawomir Perlak,M,1999-10-26,,Poland,Raw,Open,96.5,100,195,210,-220,210,110,120,125,125,215,230,-240,230,565,SBD,
26,Mateusz Musial,M,1992-03-24,,Poland,Raw,Open,96.4,100,200,205,-212.5,205,135,137.5,-142.5,137.5,220,-225,-225,220,562.5,SBD,
27,Jakub Pawłowski,M,1992-04-04,,Poland,Raw,Open,97.05,100,182.5,192.5,-200,192.5,110,117.5,-120,117.5,235,252.5,-265,252.5,562.5,SBD,Polish Barbells
28,Mariusz Mroczek,M,1975-01-20,,Poland,Raw,Open,97.3,100,180,195,200,200,120,125,130,130,-215,215,-225,215,545,SBD,Wredoty Jaroty
29,Adam Świdojć,M,1989-12-01,,Poland,Raw,Open,96.3,100,170,180,190,190,112.5,120,125,125,205,-220,225,225,540,SBD,Garage Barbell Club
30,Lukasz Kulczynski,M,1997-04-23,,Poland,Raw,Open,98.55,100,175,185,-192.5,185,122.5,127.5,-130,127.5,210,225,-232.5,225,537.5,SBD,Wredoty Jaroty
31,Artur Podraza,M,1986-08-18,,Poland,Raw,Open,97.3,100,170,-180,185,185,125,-127.5,130,130,220,-225,-230,220,535,SBD,
32,Patryk Chłodnicki,M,1992-06-18,,Poland,Raw,Open,98.3,100,165,-172.5,-172.5,165,112.5,117.5,-120,117.5,-232.5,232.5,242.5,242.5,525,SBD,Polish Barbells
33,Mateusz Winiarski,M,1994-12-17,,Poland,Raw,Open,96.05,100,-175,175,,175,115,-120,,115,225,-235,,225,515,SBD,Ekipa z Miami
34,Jakub Adamczyk,M,2002-08-02,,Poland,Raw,Open,95.25,100,145,152.5,160,160,105,110,115,115,185,195,205,205,480,SBD,Husarz Team
35,Daniel Siarkiewicz,M,1993-05-18,,Poland,Raw,Open,95.9,100,160,170,-175,170,120,127.5,-132.5,127.5,180,-200,-200,180,477.5,SBD,
36,Marcin Gryczon,M,1984-10-08,,Poland,Raw,Open,97.85,100,150,160,170,170,105,115,-120,115,170,180,190,190,475,SBD,Powerlifting Zielona Gora
37,Oleh Dorofin,M,1987-02-10,,Poland,Raw,Open,99.55,100,120,-130,130,130,120,125,130,130,180,200,-210,200,460,SBD,Torunska strefa sily
38,Tomasz Szymanek,M,1986-05-17,,Poland,Raw,Open,98.95,100,135,142.5,150,150,102.5,107.5,112.5,112.5,175,185,192.5,192.5,455,SBD,The Lifters
39,Artur Ciecko,M,1976-12-01,,Poland,Raw,Open,92.1,100,-115,115,122.5,122.5,125,-130,130,130,145,150,155,155,407.5,SBD,ZATKAlO KAKAlO
1,Wojciech Piela,M,1994-02-20,,Poland,Raw,Open,107.2,110,280,300,310,310,190,200,205,205,270,285,-300,285,800,SBD,Wredoty Jaroty
2,Jakub Kolenda,M,1988-12-28,,Poland,Raw,Open,107.7,110,-270,270,-280,270,185,192.5,-197.5,192.5,300,-320,320,320,782.5,SBD,Farma Lifterow Wojny
3,Damian Chudy,M,1999-02-26,,Poland,Raw,Open,108,110,265,275,285,285,185,195,-200,195,280,300,-310,300,780,SBD,Metro-Flex Wroclaw
4,Michał Marciniak,M,1991-01-01,,Poland,Raw,Open,105,110,245,260,275,275,180,190,-195,190,280,-295,-297.5,280,745,SBD,Goodlift Gym & Therapy
5,Dawid Dereń,M,1998-12-25,,Poland,Raw,Open,109.5,110,245,255,270,270,135,-142.5,-150,135,270,285,300,300,705,SBD,Podsztanga.pl
6,Dawid Szajek,M,2001-05-24,,Poland,Raw,Open,105.2,110,225,237.5,250,250,175,185,-187.5,185,245,255,265,265,700,SBD,Lujpower Team
7,Michal Kaim,M,1998-02-05,,Poland,Raw,Open,103,110,225,235,240,240,165,175,-180,175,260,272.5,277.5,277.5,692.5,SBD,
8,Przemysław Rybacki,M,1985-03-07,,Poland,Raw,Open,109.1,110,215,225,-230,225,180,185,-190,185,260,275,-290,275,685,SBD,Metro-Flex Wroclaw
9,Adrian Sitarski,M,1999-08-30,,Poland,Raw,Open,104.3,110,230,237.5,245,245,140,145,-150,145,280,290,-295,290,680,SBD,KS Team Wroclaw
10,Michał Stromski,M,1990-11-21,,Poland,Raw,Open,107.1,110,210,222.5,235,235,137.5,145,-152.5,145,267.5,285,300,300,680,SBD,
11,Mateusz Raj,M,2002-08-13,,Poland,Raw,Open,108.8,110,220,240,252.5,252.5,-160,170,-177.5,170,230,245,252.5,252.5,675,SBD,
12,Kamil Wyrwich,M,2000-11-21,,Poland,Raw,Open,108.8,110,220,235,-245,235,140,147.5,155,155,260,280,-285,280,670,SBD,
13,Przemysław Siwek,M,1983-09-15,,Poland,Raw,Open,104.4,110,205,-212.5,-217.5,205,145,150,-155,150,240,250,-260,250,605,SBD,Szyman Team
14,Pawel Szewczyk,M,1982-01-01,,Poland,Raw,Open,108.5,110,200,210,220,220,110,120,-125,120,240,250,260,260,600,SBD,
15,Lukasz Rogulski,M,1984-04-07,,Poland,Raw,Open,108.1,110,195,202.5,-210,202.5,152.5,-160,-160,152.5,220,235,-250,235,590,SBD,
16,Damian Głuchowski,M,1993-06-14,,Poland,Raw,Open,108.2,110,260,275,-285,275,200,207.5,215,215,75,,,75,565,SBD,Farma Lifterow Wojny
17,Paweł Regiewicz,M,2001-06-27,,Poland,Raw,Open,106.7,110,180,190,-195,190,100,105,-110,105,220,-227.5,227.5,227.5,522.5,SBD,
18,Lukasz Batycki,M,1993-11-29,,Poland,Raw,Open,105,110,175,185,195,195,110,115,-120,115,200,210,-220,210,520,SBD,
19,Kacper Puklicki,M,1996-05-24,,Poland,Raw,Open,103.8,110,167.5,177.5,185,185,92.5,-100,-100,92.5,210,-222.5,-222.5,210,487.5,SBD,
DQ,Piotr Jurewicz,M,1999-05-28,,Poland,Raw,Open,104.1,110,-175,-175,-175,,162.5,-167.5,,162.5,210,-220,220,220,,SBD,Polish Barbells
DQ,Radosław Kozdrach,M,1996-05-04,,Poland,Raw,Open,105.4,110,-255,-265,265,265,-165,165,-170,165,-320,-320,-350,,,SBD,The Lifters
DQ,Hubert Woźniak,M,1998-09-26,,Poland,Raw,Open,107.7,110,260,275,,275,142.5,150,152.5,152.5,-260,-260,-260,,,SBD,Schabownia
1,Karol Frąckowiak,M,1991-12-08,,Poland,Raw,Open,119.5,125,280,300,-315,300,165,172.5,177.5,177.5,-280,280,-305,280,757.5,SBD,Rufian Jankowo
2,Arkadiusz Reszczyński,M,1997-09-18,,Poland,Raw,Open,119.7,125,270,-285,-285,270,180,-185,-185,180,270,280,-290,280,730,SBD,Sportowe Pulawy
3,Emil Popis,M,1998-12-07,,Poland,Raw,Open,118.7,125,240,255,265,265,150,157.5,165,165,-255,270,285,285,715,SBD,
4,Marcin Błaszczyk,M,1995-11-07,,Poland,Raw,Open,111.5,125,245,255,-265,255,162.5,-167.5,167.5,167.5,260,275,285,285,707.5,SBD,Powerlifting Bears
5,Sebastian Groblewicz,M,1998-07-23,,Poland,Raw,Open,114.3,125,205,215,225,225,-150,150,155,155,255,270,-280,270,650,SBD,
6,Krystian Tatara,M,1992-09-17,,Poland,Raw,Open,117.5,125,210,220,-235,220,145,152.5,157.5,157.5,245,255,-260,255,632.5,SBD,Powerlifting Bears
7,Kamil Sobecki,M,1998-05-12,,Poland,Raw,Open,114.7,125,190,205,-220,205,130,137.5,145,145,220,235,245,245,595,SBD,
8,Martin Dudek,M,1993-02-16,,Poland,Raw,Open,120.5,125,180,190,-200,190,102.5,-110,115,115,170,182.5,200,200,505,SBD,Polish Barbells
DQ,Michal Koziatek,M,1995-01-09,,Poland,Raw,Open,111.1,125,250,260,-270,260,-165,,,,,,,,,SBD,Farma Lifterow Wojny
1,Szymon Wójtowicz,M,1994-11-08,,Poland,Raw,Open,140.6,125+,300,320,330,330,250,-260,-260,250,320,350,367.5,367.5,947.5,SBD,Farma Lifterow Wojny
2,Marcin Karkula,M,1984-01-01,,Poland,Raw,Open,174.9,125+,260,280,300,300,240,250,-255,250,250,265,280,280,830,SBD,Wredoty Jaroty
3,Sławomir Jankowski,M,1980-06-18,,Poland,Raw,Open,161.8,125+,240,255,265,265,175,-190,,175,280,300,310,310,750,SBD,Polish Barbells
4,Jakub Dzik,M,1999-06-20,,Poland,Raw,Open,130.9,125+,260,275,,275,-150,-150,150,150,260,280,-300,280,705,SBD,Powerlifting Bears
5,Kacper Gabryelczyk,M,1998-09-07,,Poland,Raw,Open,126.1,125+,220,232.5,240,240,135,-145,145,145,215,230,-240,230,615,SBD,Polish Barbells
1,Maksymilian Frydrychowicz,M,2005-01-10,,Poland,Raw,S17-19,73.45,75,-160,160,170,170,95,105,-107.5,105,170,185,200,200,475,SBD,
2,Hubert Alicki,M,2004-06-16,,Poland,Raw,S17-19,65.8,75,140,-150,-155,140,105,-110,110,110,170,180,-190,180,430,SBD,The Lifters
1,Damian Rusek,M,2004-06-16,,Poland,Raw,S17-19,79.55,82.5,200,207.5,-212.5,207.5,115,-120,-120,115,270,285,-302.5,285,607.5,SBD,Farma Lifterow Wojny
2,Mateusz Browarski,M,2003-08-28,,Poland,Raw,S17-19,81.6,82.5,190,200,-207.5,200,110,115,-120,115,235,250,-260,250,565,SBD,
3,Szymon Zapert,M,2004-08-18,,Poland,Raw,S17-19,79.45,82.5,180,195,-202.5,195,115,122.5,-127.5,122.5,205,220,232.5,232.5,550,SBD,
4,Nikodem Kuczborski,M,2003-09-18,,Poland,Raw,S17-19,78.85,82.5,185,195,-200,195,127.5,-135,-135,127.5,200,210,-215,210,532.5,SBD,
5,Marcel Marcinek,M,2004-09-27,,Poland,Raw,S17-19,78.6,82.5,150,160,170,170,90,100,-105,100,200,-210,210,210,480,SBD,
6,Konrad Tarka,M,2002-06-22,,Poland,Raw,S17-19,77.15,82.5,140,147.5,152.5,152.5,85,90,95,95,167.5,177.5,185,185,432.5,SBD,Husarz Team
1,Mateusz Surowiec,M,2002-06-30,,Poland,Raw,S17-19,94.75,100,185,200,-210,200,125,132.5,-137.5,132.5,240,-257.5,-257.5,240,572.5,SBD,TAURUS TEAM
2,Jakub Adamczyk,M,2002-08-02,,Poland,Raw,S17-19,95.25,100,145,152.5,160,160,105,110,115,115,185,195,205,205,480,SBD,Husarz Team
1,Szymon Laskowski,M,2002-08-05,,Poland,Raw,S18-19,80.3,82.5,185,192.5,200,200,105,112.5,-117.5,112.5,200,212.5,-220,212.5,525,SBD,Goodlift Gym & Therapy
2,Kacper Skawinski,M,2004-09-03,,Poland,Raw,S18-19,77.8,82.5,145,-155,-155,145,112.5,120,122.5,122.5,150,157.5,165,165,432.5,SBD,
1,Kacper Sarnowski,M,2003-08-31,,Poland,Raw,S18-19,95.4,100,210,220,240,240,150,160,-165,160,275,295,-300,295,695,SBD,
1,Mateusz Raj,M,2002-08-13,,Poland,Raw,S18-19,108.8,110,220,240,252.5,252.5,-160,170,-177.5,170,230,245,252.5,252.5,675,SBD,
